ClrHome
Input "",Str1
Input "",Str2
ClrHome
{0}→L₁
{0}→L₂
While 0=0
randInt(1,16)→Y
randInt(1,8)→X
randInt(0,1)→θ
1→G
For(A,1,dim(L₁
For(B,1,dim(L₂
If (L₁(A)=X) and (L₂(B)=Y):0→G
End
End
If G≠0:Then:
If θ=1:Str1→Str3
If θ=0:Str2→Str3
Output(X,Y,Str3
augment({X},L₁)→L₁
augment({Y},L₂)→L₂
End
End
Pause 